…
    ## # A tibble: 3 × 2
    ##   species   mean_val
    ##   <fct>        <dbl>
    ## 1 Adelie       3701.
    ## 2 Chinstrap    3733.
    ## 3 Gentoo       5076.

``` r
#Example 2 - Finding mean diameter for each tree genus in the Vancouver trees dataset 
groupby_summarise(vancouver_trees, genus_name, diameter)
```

    ## # A tibble: 97 × 2
    ##    genus_name  mean_val
    ##    <chr>          <dbl>
    ##  1 ABIES          12.9 
    ##  2 ACER           10.6 
    ##  3 AESCULUS       23.7 
    ##  4 AILANTHUS      15.9 
    ##  5 ALBIZIA         6   
    ##  6 ALNUS          17.5 
    ##  7 AMELANCHIER     3.21
    ##  8 ARALIA          6.81
    ##  9 ARAUCARIA      11.4 
    ## 10 ARBUTUS        18.4 
    ## # … with 87 more rows

``` r
#Example 3 - Finding the mean life expectancy for each country in the gapminder dataset 
groupby_summarise(gapminder, country, lifeExp)
```

    ## # A tibble: 142 × 2
    ##    country     mean_val
    ##    <fct>          <dbl>
    ##  1 Afghanistan     37.5
    ##  2 Albania         68.4
    ##  3 Algeria         59.0
    ##  4 Angola          37.9
    ##  5 Argentina       69.1
    ##  6 Australia       74.7
    ##  7 Austria         73.1
    ##  8 Bahrain         65.6
    ##  9 Bangladesh      49.8
    ## 10 Belgium         73.6
    ## # … with 132 more rows
…
